{
  "project_info": {
    "project_number": "295110157535",
    "firebase_url": "https://cheff-ed929.firebaseio.com",
    "project_id": "cheff-ed929",
    "storage_bucket": "cheff-ed929.appspot.com"
  },
  "client": [
    {
      "client_info": {
        "mobilesdk_app_id": "1:295110157535:android:3102fe208064995a1b356a",
        "android_client_info": {
          "package_name": "com.baldurgames.cheff"
        }
      },
      "oauth_client": [
        {
          "client_id": "295110157535-5huv9gcjo4rinrfkbrilbg25o41a1mng.apps.googleusercontent.com",
          "client_type": 3
        }
      ],
      "api_key": [
        {
          "current_key": "AIzaSyBV8a4Svb-UxZ5ajHbpZInownvFO9b1lQw"
        }
      ],
      "services": {
        "appinvite_service": {
          "other_platform_oauth_client": [
            {
              "client_id": "295110157535-5huv9gcjo4rinrfkbrilbg25o41a1mng.apps.googleusercontent.com",
              "client_type": 3
            }
          ]
        }
      }
    }
  ],
  "configuration_version": "1"
}